{
    "app-id" : "org.gnome.Snicer",
    "runtime" : "org.gnome.Platform",
    "runtime-version" : "46",
    "sdk" : "org.gnome.Sdk",
    "command" : "snicer",
    "finish-args" : [
        "--share=network",
        "--share=ipc",
        "--socket=x11",
        "--socket=wayland",
        "--talk-name=org.gtk.vfs",
        "--talk-name=org.gtk.vfs.*"
    ],
    "build-options" : {
        "cflags" : "-O2 -g",
        "cxxflags" : "-O2 -g",
        "env" : {
            "V" : "1"
        }
    },
    "cleanup" : [
        "/include",
        "/lib/pkgconfig",
        "/man",
        "/share/doc",
        "/share/gtk-doc",
        "/share/man",
        "/share/pkgconfig",
        "*.la",
        "*.a"
    ],
    "modules" : [
        {
            "name" : "podofo",
            "buildsystem" : "cmake-ninja",
            "config-opts" : [
                "-DPODOFO_BUILD_LIB_ONLY=1",
                "-DPODOFO_BUILD_STATIC=0"
            ],
            "sources" : [
                {
                    "type" : "git",
                    "url" : "https://github.com/podofo/podofo.git",
		    "tag" : "0.10.3"
                }
            ]
        },
        {
            "name" : "popplerdata",
            "no-autogen" : true,
            "make-install-args" : [
                "prefix=/app"
            ],
            "sources" : [
                {
                    "type" : "archive",
                    "url" : "http://poppler.freedesktop.org/poppler-data-0.4.12.tar.gz",
                    "sha256" : "c835b640a40ce357e1b83666aabd95edffa24ddddd49b8daff63adb851cdab74"
                }
            ]
        },
        {
            "name" : "poppler",
            "buildsystem" : "cmake-ninja",
            "config-opts" : [
                "-DENABLE_LIBOPENJPEG=none",
                "-DENABLE_UTILS=off",
                "-DBUILD_QT5_TESTS=off",
                "-DENABLE_QT5=off",
                "-DENABLE_QT6=off",
		"-DENABLE_BOOST=off"
            ],
            "cleanup" : [
                "/bin"
            ],
            "sources" : [
                {
                    "type" : "archive",
                    "url" : "http://poppler.freedesktop.org/poppler-24.04.0.tar.xz",
                    "sha256" : "1e804ec565acf7126eb2e9bb3b56422ab2039f7e05863a5dfabdd1ffd1bb77a7"
                }
            ]
        },
        {
            "name" : "snicer",
            "buildsystem" : "meson",
            "config-opts" : [
                "--libdir=lib"
            ],
            "builddir" : true,
            "sources" : [
                {
                    "type" : "git",
                    "url" : "https://gitlab.gnome.org/jensgeorg/snicer.git/"
                }
            ]
        }
    ]
}
